Week 10 Assignment - Sentiment Analysis
…
Comparing the three sentiment dictionaries

We will focus on the book Pride & Prejudice as we compare the sentiment dictionaries: bing, AFINN, and NRC.

pride_prejudice <- tidy_books %>% 
  filter(book == "Pride & Prejudice")

pride_prejudice

## # A tibble: 122,204 x 4
##    book              linenumber chapter word     
##    <fct>                  <int>   <int> <chr>    
##  1 Pride & Prejudice          1       0 pride    
##  2 Pride & Prejudice          1       0 and      
##  3 Pride & Prejudice          1       0 prejudice
##  4 Pride & Prejudice          3       0 by       
##  5 Pride & Prejudice          3       0 jane     
##  6 Pride & Prejudice          3       0 austen   
##  7 Pride & Prejudice          7       1 chapter  
##  8 Pride & Prejudice          7       1 1        
##  9 Pride & Prejudice         10       1 it       
## 10 Pride & Prejudice         10       1 is       
## # ... with 122,194 more rows
…
Most common positive and negative words

Returning to tidy_books, count the number of times a word from the bing dictionary appears, and show its sentiment value.

bing_word_counts <- tidy_books %>%
  inner_join(get_sentiments("bing")) %>%
  count(word, sentiment, sort = TRUE) %>%
  ungroup()

## Joining, by = "word"

bing_word_counts

## # A tibble: 2,585 x 3
##    word     sentiment     n
##    <chr>    <chr>     <int>
##  1 miss     negative   1855
##  2 well     positive   1523
##  3 good     positive   1380
##  4 great    positive    981
##  5 like     positive    725
##  6 better   positive    639
##  7 enough   positive    613
##  8 happy    positive    534
##  9 love     positive    495
## 10 pleasure positive    462
## # ... with 2,575 more rows
…
This portion of code can be used to define your own stop-words. Here, the word miss is added.

custom_stop_words <- bind_rows(tibble(word = c("miss"),  
                                      lexicon = c("custom")), 
                               stop_words)

custom_stop_words

## # A tibble: 1,150 x 2
##    word        lexicon
##    <chr>       <chr>  
##  1 miss        custom 
##  2 a           SMART  
##  3 a's         SMART  
##  4 able        SMART  
##  5 about       SMART  
##  6 above       SMART  
##  7 according   SMART  
##  8 accordingly SMART  
##  9 across      SMART  
## 10 actually    SMART  
## # ... with 1,140 more rows
…
The visualization shows that Bing et al., and especially Loughran, classified many words as negative. Lets view which are the most occurring words and their sentiment values according to Bing et al.and Loughran.

bing_word_counts <- tidy_tale %>%
  inner_join(get_sentiments("bing")) %>%
  count(word, sentiment, sort = TRUE) %>%
  ungroup()

## Joining, by = "word"

bing_word_counts

## # A tibble: 1,870 x 3
##    word     sentiment     n
##    <chr>    <chr>     <int>
##  1 miss     negative    233
##  2 good     positive    217
##  3 like     positive    214
##  4 well     positive    179
##  5 great    positive    161
##  6 prisoner negative    115
##  7 better   positive     90
##  8 dark     negative     89
##  9 work     positive     88
## 10 poor     negative     87
## # ... with 1,860 more rows

loughran_word_counts <- tidy_tale %>%
  inner_join(get_sentiments("loughran")) %>%
    filter(sentiment %in% c("positive",
                          "negative"))%>% 
  count(word, sentiment, sort = TRUE) %>%
  ungroup()

## Joining, by = "word"

loughran_word_counts

## # A tibble: 634 x 3
##    word     sentiment     n
##    <chr>    <chr>     <int>
##  1 miss     negative    233
##  2 good     positive    217
##  3 great    positive    161
##  4 better   positive     90
##  5 poor     negative     87
##  6 against  negative     77
##  7 strong   positive     65
##  8 stopped  negative     62
##  9 question negative     51
## 10 dropped  negative     44
## # ... with 624 more rows
…
